%YAML 1.1
%TAG !u! tag:unity3d.com,2011:
--- !u!1045 &1
EditorBuildSettings:
  m_ObjectHideFlags: 0
  serializedVersion: 2
  m_Scenes:
  - enabled: 1
    path: Assets/Scenes/SplashScene.unity
    guid: 6476237bc43b78a4e9961376bab311a3
  - enabled: 1
    path: Assets/Scenes/GameScene.unity
    guid: 2cda990e2423bbf4892e6590ba056729
  - enabled: 1
    path: Assets/Scenes/LossScene.unity
    guid: 69dfde8366b57be47aaa720611d0adb0
  - enabled: 1
    path: Assets/Scenes/WinScene.unity
    guid: 463ef2b98df240a418f70cb7f0b0e4d8
  m_configObjects: {}
